2500
 0.501 0.001 0
 0.503 0.001 0
 0.505 0.001 0
 0.507 0.001 0
 0.509 0.001 0
 0.511 0.001 0
 0.513 0.001 0
 0.515 0.001 0
 0.517 0.001 0
 0.519 0.001 0
 0.521 0.001 0
 0.523 0.001 0
 0.525 0.001 0
 0.527 0.001 0
 0.529 0.001 0
 0.531 0.001 0
 0.533 0.001 0
 0.535 0.001 0
 0.537 0.001 0
 0.539 0.001 0
 0.541 0.001 0
 0.543 0.001 0
 0.545 0.001 0
 0.547 0.001 0
 0.549 0.001 0
 0.551 0.001 0
 0.553 0.001 0
 0.555 0.001 0
 0.557 0.001 0
 0.559 0.001 0
 0.561 0.001 0
 0.563 0.001 0
 0.565 0.001 0
 0.567 0.001 0
 0.569 0.001 0
 0.571 0.001 0
 0.573 0.001 0
 0.575 0.001 0
 0.577 0.001 0
 0.579 0.001 0
 0.581 0.001 0
 0.583 0.001 0
 0.585 0.001 0
 0.587 0.001 0
 0.589 0.001 0
 0.591 0.001 0
 0.593 0.001 0
 0.595 0.001 0
 0.597 0.001 0
 0.599 0.001 0
 0.501 0.003 0
 0.503 0.003 0
 0.505 0.003 0
 0.507 0.003 0
 0.509 0.003 0
 0.511 0.003 0
 0.513 0.003 0
 0.515 0.003 0
 0.517 0.003 0
 0.519 0.003 0
 0.521 0.003 0
 0.523 0.003 0
 0.525 0.003 0
 0.527 0.003 0
 0.529 0.003 0
 0.531 0.003 0
 0.533 0.003 0
 0.535 0.003 0
 0.537 0.003 0
 0.539 0.003 0
 0.541 0.003 0
 0.543 0.003 0
 0.545 0.003 0
 0.547 0.003 0
 0.549 0.003 0
 0.551 0.003 0
 0.553 0.003 0
 0.555 0.003 0
 0.557 0.003 0
 0.559 0.003 0
 0.561 0.003 0
 0.563 0.003 0
 0.565 0.003 0
 0.567 0.003 0
 0.569 0.003 0
 0.571 0.003 0
 0.573 0.003 0
 0.575 0.003 0
 0.577 0.003 0
 0.579 0.003 0
 0.581 0.003 0
 0.583 0.003 0
 0.585 0.003 0
 0.587 0.003 0
 0.589 0.003 0
 0.591 0.003 0
 0.593 0.003 0
 0.595 0.003 0
 0.597 0.003 0
 0.599 0.003 0
 0.501 0.005 0
 0.503 0.005 0
 0.505 0.005 0
 0.507 0.005 0
 0.509 0.005 0
 0.511 0.005 0
 0.513 0.005 0
 0.515 0.005 0
 0.517 0.005 0
 0.519 0.005 0
 0.521 0.005 0
 0.523 0.005 0
 0.525 0.005 0
 0.527 0.005 0
 0.529 0.005 0
 0.531 0.005 0
 0.533 0.005 0
 0.535 0.005 0
 0.537 0.005 0
 0.539 0.005 0
 0.541 0.005 0
 0.543 0.005 0
 0.545 0.005 0
 0.547 0.005 0
 0.549 0.005 0
 0.551 0.005 0
 0.553 0.005 0
 0.555 0.005 0
 0.557 0.005 0
 0.559 0.005 0
 0.561 0.005 0
 0.563 0.005 0
 0.565 0.005 0
 0.567 0.005 0
 0.569 0.005 0
 0.571 0.005 0
 0.573 0.005 0
 0.575 0.005 0
 0.577 0.005 0
 0.579 0.005 0
 0.581 0.005 0
 0.583 0.005 0
 0.585 0.005 0
 0.587 0.005 0
 0.589 0.005 0
 0.591 0.005 0
 0.593 0.005 0
 0.595 0.005 0
 0.597 0.005 0
 0.599 0.005 0
 0.501 0.007 0
 0.503 0.007 0
 0.505 0.007 0
 0.507 0.007 0
 0.509 0.007 0
 0.511 0.007 0
 0.513 0.007 0
 0.515 0.007 0
 0.517 0.007 0
 0.519 0.007 0
 0.521 0.007 0
 0.523 0.007 0
 0.525 0.007 0
 0.527 0.007 0
 0.529 0.007 0
 0.531 0.007 0
 0.533 0.007 0
 0.535 0.007 0
 0.537 0.007 0
 0.539 0.007 0
 0.541 0.007 0
 0.543 0.007 0
 0.545 0.007 0
 0.547 0.007 0
 0.549 0.007 0
 0.551 0.007 0
 0.553 0.007 0
 0.555 0.007 0
 0.557 0.007 0
 0.559 0.007 0
 0.561 0.007 0
 0.563 0.007 0
 0.565 0.007 0
 0.567 0.007 0
 0.569 0.007 0
 0.571 0.007 0
 0.573 0.007 0
 0.575 0.007 0
 0.577 0.007 0
 0.579 0.007 0
 0.581 0.007 0
 0.583 0.007 0
 0.585 0.007 0
 0.587 0.007 0
 0.589 0.007 0
 0.591 0.007 0
 0.593 0.007 0
 0.595 0.007 0
 0.597 0.007 0
 0.599 0.007 0
 0.501 0.009 0
 0.503 0.009 0
 0.505 0.009 0
 0.507 0.009 0
 0.509 0.009 0
 0.511 0.009 0
 0.513 0.009 0
 0.515 0.009 0
 0.517 0.009 0
 0.519 0.009 0
 0.521 0.009 0
 0.523 0.009 0
 0.525 0.009 0
 0.527 0.009 0
 0.529 0.009 0
 0.531 0.009 0
 0.533 0.009 0
 0.535 0.009 0
 0.537 0.009 0
 0.539 0.009 0
 0.541 0.009 0
 0.543 0.009 0
 0.545 0.009 0
 0.547 0.009 0
 0.549 0.009 0
 0.551 0.009 0
 0.553 0.009 0
 0.555 0.009 0
 0.557 0.009 0
 0.559 0.009 0
 0.561 0.009 0
 0.563 0.009 0
 0.565 0.009 0
 0.567 0.009 0
 0.569 0.009 0
 0.571 0.009 0
 0.573 0.009 0
 0.575 0.009 0
 0.577 0.009 0
 0.579 0.009 0
 0.581 0.009 0
 0.583 0.009 0
 0.585 0.009 0
 0.587 0.009 0
 0.589 0.009 0
 0.591 0.009 0
 0.593 0.009 0
 0.595 0.009 0
 0.597 0.009 0
 0.599 0.009 0
 0.501 0.011 0
 0.503 0.011 0
 0.505 0.011 0
 0.507 0.011 0
 0.509 0.011 0
 0.511 0.011 0
 0.513 0.011 0
 0.515 0.011 0
 0.517 0.011 0
 0.519 0.011 0
 0.521 0.011 0
 0.523 0.011 0
 0.525 0.011 0
 0.527 0.011 0
 0.529 0.011 0
 0.531 0.011 0
 0.533 0.011 0
 0.535 0.011 0
 0.537 0.011 0
 0.539 0.011 0
 0.541 0.011 0
 0.543 0.011 0
 0.545 0.011 0
 0.547 0.011 0
 0.549 0.011 0
 0.551 0.011 0
 0.553 0.011 0
 0.555 0.011 0
 0.557 0.011 0
 0.559 0.011 0
 0.561 0.011 0
 0.563 0.011 0
 0.565 0.011 0
 0.567 0.011 0
 0.569 0.011 0
 0.571 0.011 0
 0.573 0.011 0
 0.575 0.011 0
 0.577 0.011 0
 0.579 0.011 0
 0.581 0.011 0
 0.583 0.011 0
 0.585 0.011 0
 0.587 0.011 0
 0.589 0.011 0
 0.591 0.011 0
 0.593 0.011 0
 0.595 0.011 0
 0.597 0.011 0
 0.599 0.011 0
 0.501 0.013 0
 0.503 0.013 0
 0.505 0.013 0
 0.507 0.013 0
 0.509 0.013 0
 0.511 0.013 0
 0.513 0.013 0
 0.515 0.013 0
 0.517 0.013 0
 0.519 0.013 0
 0.521 0.013 0
 0.523 0.013 0
 0.525 0.013 0
 0.527 0.013 0
 0.529 0.013 0
 0.531 0.013 0
 0.533 0.013 0
 0.535 0.013 0
 0.537 0.013 0
 0.539 0.013 0
 0.541 0.013 0
 0.543 0.013 0
 0.545 0.013 0
 0.547 0.013 0
 0.549 0.013 0
 0.551 0.013 0
 0.553 0.013 0
 0.555 0.013 0
 0.557 0.013 0
 0.559 0.013 0
 0.561 0.013 0
 0.563 0.013 0
 0.565 0.013 0
 0.567 0.013 0
 0.569 0.013 0
 0.571 0.013 0
 0.573 0.013 0
 0.575 0.013 0
 0.577 0.013 0
 0.579 0.013 0
 0.581 0.013 0
 0.583 0.013 0
 0.585 0.013 0
 0.587 0.013 0
 0.589 0.013 0
 0.591 0.013 0
 0.593 0.013 0
 0.595 0.013 0
 0.597 0.013 0
 0.599 0.013 0
 0.501 0.015 0
 0.503 0.015 0
 0.505 0.015 0
 0.507 0.015 0
 0.509 0.015 0
 0.511 0.015 0
 0.513 0.015 0
 0.515 0.015 0
 0.517 0.015 0
 0.519 0.015 0
 0.521 0.015 0
 0.523 0.015 0
 0.525 0.015 0
 0.527 0.015 0
 0.529 0.015 0
 0.531 0.015 0
 0.533 0.015 0
 0.535 0.015 0
 0.537 0.015 0
 0.539 0.015 0
 0.541 0.015 0
 0.543 0.015 0
 0.545 0.015 0
 0.547 0.015 0
 0.549 0.015 0
 0.551 0.015 0
 0.553 0.015 0
 0.555 0.015 0
 0.557 0.015 0
 0.559 0.015 0
 0.561 0.015 0
 0.563 0.015 0
 0.565 0.015 0
 0.567 0.015 0
 0.569 0.015 0
 0.571 0.015 0
 0.573 0.015 0
 0.575 0.015 0
 0.577 0.015 0
 0.579 0.015 0
 0.581 0.015 0
 0.583 0.015 0
 0.585 0.015 0
 0.587 0.015 0
 0.589 0.015 0
 0.591 0.015 0
 0.593 0.015 0
 0.595 0.015 0
 0.597 0.015 0
 0.599 0.015 0
 0.501 0.017 0
 0.503 0.017 0
 0.505 0.017 0
 0.507 0.017 0
 0.509 0.017 0
 0.511 0.017 0
 0.513 0.017 0
 0.515 0.017 0
 0.517 0.017 0
 0.519 0.017 0
 0.521 0.017 0
 0.523 0.017 0
 0.525 0.017 0
 0.527 0.017 0
 0.529 0.017 0
 0.531 0.017 0
 0.533 0.017 0
 0.535 0.017 0
 0.537 0.017 0
 0.539 0.017 0
 0.541 0.017 0
 0.543 0.017 0
 0.545 0.017 0
 0.547 0.017 0
 0.549 0.017 0
 0.551 0.017 0
 0.553 0.017 0
 0.555 0.017 0
 0.557 0.017 0
 0.559 0.017 0
 0.561 0.017 0
 0.563 0.017 0
 0.565 0.017 0
 0.567 0.017 0
 0.569 0.017 0
 0.571 0.017 0
 0.573 0.017 0
 0.575 0.017 0
 0.577 0.017 0
 0.579 0.017 0
 0.581 0.017 0
 0.583 0.017 0
 0.585 0.017 0
 0.587 0.017 0
 0.589 0.017 0
 0.591 0.017 0
 0.593 0.017 0
 0.595 0.017 0
 0.597 0.017 0
 0.599 0.017 0
 0.501 0.019 0
 0.503 0.019 0
 0.505 0.019 0
 0.507 0.019 0
 0.509 0.019 0
 0.511 0.019 0
 0.513 0.019 0
 0.515 0.019 0
 0.517 0.019 0
 0.519 0.019 0
 0.521 0.019 0
 0.523 0.019 0
 0.525 0.019 0
 0.527 0.019 0
 0.529 0.019 0
 0.531 0.019 0
 0.533 0.019 0
 0.535 0.019 0
 0.537 0.019 0
 0.539 0.019 0
 0.541 0.019 0
 0.543 0.019 0
 0.545 0.019 0
 0.547 0.019 0
 0.549 0.019 0
 0.551 0.019 0
 0.553 0.019 0
 0.555 0.019 0
 0.557 0.019 0
 0.559 0.019 0
 0.561 0.019 0
 0.563 0.019 0
 0.565 0.019 0
 0.567 0.019 0
 0.569 0.019 0
 0.571 0.019 0
 0.573 0.019 0
 0.575 0.019 0
 0.577 0.019 0
 0.579 0.019 0
 0.581 0.019 0
 0.583 0.019 0
 0.585 0.019 0
 0.587 0.019 0
 0.589 0.019 0
 0.591 0.019 0
 0.593 0.019 0
 0.595 0.019 0
 0.597 0.019 0
 0.599 0.019 0
 0.501 0.021 0
 0.503 0.021 0
 0.505 0.021 0
 0.507 0.021 0
 0.509 0.021 0
 0.511 0.021 0
 0.513 0.021 0
 0.515 0.021 0
 0.517 0.021 0
 0.519 0.021 0
 0.521 0.021 0
 0.523 0.021 0
 0.525 0.021 0
 0.527 0.021 0
 0.529 0.021 0
 0.531 0.021 0
 0.533 0.021 0
 0.535 0.021 0
 0.537 0.021 0
 0.539 0.021 0
 0.541 0.021 0
 0.543 0.021 0
 0.545 0.021 0
 0.547 0.021 0
 0.549 0.021 0
 0.551 0.021 0
 0.553 0.021 0
 0.555 0.021 0
 0.557 0.021 0
 0.559 0.021 0
 0.561 0.021 0
 0.563 0.021 0
 0.565 0.021 0
 0.567 0.021 0
 0.569 0.021 0
 0.571 0.021 0
 0.573 0.021 0
 0.575 0.021 0
 0.577 0.021 0
 0.579 0.021 0
 0.581 0.021 0
 0.583 0.021 0
 0.585 0.021 0
 0.587 0.021 0
 0.589 0.021 0
 0.591 0.021 0
 0.593 0.021 0
 0.595 0.021 0
 0.597 0.021 0
 0.599 0.021 0
 0.501 0.023 0
 0.503 0.023 0
 0.505 0.023 0
 0.507 0.023 0
 0.509 0.023 0
 0.511 0.023 0
 0.513 0.023 0
 0.515 0.023 0
 0.517 0.023 0
 0.519 0.023 0
 0.521 0.023 0
 0.523 0.023 0
 0.525 0.023 0
 0.527 0.023 0
 0.529 0.023 0
 0.531 0.023 0
 0.533 0.023 0
 0.535 0.023 0
 0.537 0.023 0
 0.539 0.023 0
 0.541 0.023 0
 0.543 0.023 0
 0.545 0.023 0
 0.547 0.023 0
 0.549 0.023 0
 0.551 0.023 0
 0.553 0.023 0
 0.555 0.023 0
 0.557 0.023 0
 0.559 0.023 0
 0.561 0.023 0
 0.563 0.023 0
 0.565 0.023 0
 0.567 0.023 0
 0.569 0.023 0
 0.571 0.023 0
 0.573 0.023 0
 0.575 0.023 0
 0.577 0.023 0
 0.579 0.023 0
 0.581 0.023 0
 0.583 0.023 0
 0.585 0.023 0
 0.587 0.023 0
 0.589 0.023 0
 0.591 0.023 0
 0.593 0.023 0
 0.595 0.023 0
 0.597 0.023 0
 0.599 0.023 0
 0.501 0.025 0
 0.503 0.025 0
 0.505 0.025 0
 0.507 0.025 0
 0.509 0.025 0
 0.511 0.025 0
 0.513 0.025 0
 0.515 0.025 0
 0.517 0.025 0
 0.519 0.025 0
 0.521 0.025 0
 0.523 0.025 0
 0.525 0.025 0
 0.527 0.025 0
 0.529 0.025 0
 0.531 0.025 0
 0.533 0.025 0
 0.535 0.025 0
 0.537 0.025 0
 0.539 0.025 0
 0.541 0.025 0
 0.543 0.025 0
 0.545 0.025 0
 0.547 0.025 0
 0.549 0.025 0
 0.551 0.025 0
 0.553 0.025 0
 0.555 0.025 0
 0.557 0.025 0
 0.559 0.025 0
 0.561 0.025 0
 0.563 0.025 0
 0.565 0.025 0
 0.567 0.025 0
 0.569 0.025 0
 0.571 0.025 0
 0.573 0.025 0
 0.575 0.025 0
 0.577 0.025 0
 0.579 0.025 0
 0.581 0.025 0
 0.583 0.025 0
 0.585 0.025 0
 0.587 0.025 0
 0.589 0.025 0
 0.591 0.025 0
 0.593 0.025 0
 0.595 0.025 0
 0.597 0.025 0
 0.599 0.025 0
 0.501 0.027 0
 0.503 0.027 0
 0.505 0.027 0
 0.507 0.027 0
 0.509 0.027 0
 0.511 0.027 0
 0.513 0.027 0
 0.515 0.027 0
 0.517 0.027 0
 0.519 0.027 0
 0.521 0.027 0
 0.523 0.027 0
 0.525 0.027 0
 0.527 0.027 0
 0.529 0.027 0
 0.531 0.027 0
 0.533 0.027 0
 0.535 0.027 0
 0.537 0.027 0
 0.539 0.027 0
 0.541 0.027 0
 0.543 0.027 0
 0.545 0.027 0
 0.547 0.027 0
 0.549 0.027 0
 0.551 0.027 0
 0.553 0.027 0
 0.555 0.027 0
 0.557 0.027 0
 0.559 0.027 0
 0.561 0.027 0
 0.563 0.027 0
 0.565 0.027 0
 0.567 0.027 0
 0.569 0.027 0
 0.571 0.027 0
 0.573 0.027 0
 0.575 0.027 0
 0.577 0.027 0
 0.579 0.027 0
 0.581 0.027 0
 0.583 0.027 0
 0.585 0.027 0
 0.587 0.027 0
 0.589 0.027 0
 0.591 0.027 0
 0.593 0.027 0
 0.595 0.027 0
 0.597 0.027 0
 0.599 0.027 0
 0.501 0.029 0
 0.503 0.029 0
 0.505 0.029 0
 0.507 0.029 0
 0.509 0.029 0
 0.511 0.029 0
 0.513 0.029 0
 0.515 0.029 0
 0.517 0.029 0
 0.519 0.029 0
 0.521 0.029 0
 0.523 0.029 0
 0.525 0.029 0
 0.527 0.029 0
 0.529 0.029 0
 0.531 0.029 0
 0.533 0.029 0
 0.535 0.029 0
 0.537 0.029 0
 0.539 0.029 0
 0.541 0.029 0
 0.543 0.029 0
 0.545 0.029 0
 0.547 0.029 0
 0.549 0.029 0
 0.551 0.029 0
 0.553 0.029 0
 0.555 0.029 0
 0.557 0.029 0
 0.559 0.029 0
 0.561 0.029 0
 0.563 0.029 0
 0.565 0.029 0
 0.567 0.029 0
 0.569 0.029 0
 0.571 0.029 0
 0.573 0.029 0
 0.575 0.029 0
 0.577 0.029 0
 0.579 0.029 0
 0.581 0.029 0
 0.583 0.029 0
 0.585 0.029 0
 0.587 0.029 0
 0.589 0.029 0
 0.591 0.029 0
 0.593 0.029 0
 0.595 0.029 0
 0.597 0.029 0
 0.599 0.029 0
 0.501 0.031 0
 0.503 0.031 0
 0.505 0.031 0
 0.507 0.031 0
 0.509 0.031 0
 0.511 0.031 0
 0.513 0.031 0
 0.515 0.031 0
 0.517 0.031 0
 0.519 0.031 0
 0.521 0.031 0
 0.523 0.031 0
 0.525 0.031 0
 0.527 0.031 0
 0.529 0.031 0
 0.531 0.031 0
 0.533 0.031 0
 0.535 0.031 0
 0.537 0.031 0
 0.539 0.031 0
 0.541 0.031 0
 0.543 0.031 0
 0.545 0.031 0
 0.547 0.031 0
 0.549 0.031 0
 0.551 0.031 0
 0.553 0.031 0
 0.555 0.031 0
 0.557 0.031 0
 0.559 0.031 0
 0.561 0.031 0
 0.563 0.031 0
 0.565 0.031 0
 0.567 0.031 0
 0.569 0.031 0
 0.571 0.031 0
 0.573 0.031 0
 0.575 0.031 0
 0.577 0.031 0
 0.579 0.031 0
 0.581 0.031 0
 0.583 0.031 0
 0.585 0.031 0
 0.587 0.031 0
 0.589 0.031 0
 0.591 0.031 0
 0.593 0.031 0
 0.595 0.031 0
 0.597 0.031 0
 0.599 0.031 0
 0.501 0.033 0
 0.503 0.033 0
 0.505 0.033 0
 0.507 0.033 0
 0.509 0.033 0
 0.511 0.033 0
 0.513 0.033 0
 0.515 0.033 0
 0.517 0.033 0
 0.519 0.033 0
 0.521 0.033 0
 0.523 0.033 0
 0.525 0.033 0
 0.527 0.033 0
 0.529 0.033 0
 0.531 0.033 0
 0.533 0.033 0
 0.535 0.033 0
 0.537 0.033 0
 0.539 0.033 0
 0.541 0.033 0
 0.543 0.033 0
 0.545 0.033 0
 0.547 0.033 0
 0.549 0.033 0
 0.551 0.033 0
 0.553 0.033 0
 0.555 0.033 0
 0.557 0.033 0
 0.559 0.033 0
 0.561 0.033 0
 0.563 0.033 0
 0.565 0.033 0
 0.567 0.033 0
 0.569 0.033 0
 0.571 0.033 0
 0.573 0.033 0
 0.575 0.033 0
 0.577 0.033 0
 0.579 0.033 0
 0.581 0.033 0
 0.583 0.033 0
 0.585 0.033 0
 0.587 0.033 0
 0.589 0.033 0
 0.591 0.033 0
 0.593 0.033 0
 0.595 0.033 0
 0.597 0.033 0
 0.599 0.033 0
 0.501 0.035 0
 0.503 0.035 0
 0.505 0.035 0
 0.507 0.035 0
 0.509 0.035 0
 0.511 0.035 0
 0.513 0.035 0
 0.515 0.035 0
 0.517 0.035 0
 0.519 0.035 0
 0.521 0.035 0
 0.523 0.035 0
 0.525 0.035 0
 0.527 0.035 0
 0.529 0.035 0
 0.531 0.035 0
 0.533 0.035 0
 0.535 0.035 0
 0.537 0.035 0
 0.539 0.035 0
 0.541 0.035 0
 0.543 0.035 0
 0.545 0.035 0
 0.547 0.035 0
 0.549 0.035 0
 0.551 0.035 0
 0.553 0.035 0
 0.555 0.035 0
 0.557 0.035 0
 0.559 0.035 0
 0.561 0.035 0
 0.563 0.035 0
 0.565 0.035 0
 0.567 0.035 0
 0.569 0.035 0
 0.571 0.035 0
 0.573 0.035 0
 0.575 0.035 0
 0.577 0.035 0
 0.579 0.035 0
 0.581 0.035 0
 0.583 0.035 0
 0.585 0.035 0
 0.587 0.035 0
 0.589 0.035 0
 0.591 0.035 0
 0.593 0.035 0
 0.595 0.035 0
 0.597 0.035 0
 0.599 0.035 0
 0.501 0.037 0
 0.503 0.037 0
 0.505 0.037 0
 0.507 0.037 0
 0.509 0.037 0
 0.511 0.037 0
 0.513 0.037 0
 0.515 0.037 0
 0.517 0.037 0
 0.519 0.037 0
 0.521 0.037 0
 0.523 0.037 0
 0.525 0.037 0
 0.527 0.037 0
 0.529 0.037 0
 0.531 0.037 0
 0.533 0.037 0
 0.535 0.037 0
 0.537 0.037 0
 0.539 0.037 0
 0.541 0.037 0
 0.543 0.037 0
 0.545 0.037 0
 0.547 0.037 0
 0.549 0.037 0
 0.551 0.037 0
 0.553 0.037 0
 0.555 0.037 0
 0.557 0.037 0
 0.559 0.037 0
 0.561 0.037 0
 0.563 0.037 0
 0.565 0.037 0
 0.567 0.037 0
 0.569 0.037 0
 0.571 0.037 0
 0.573 0.037 0
 0.575 0.037 0
 0.577 0.037 0
 0.579 0.037 0
 0.581 0.037 0
 0.583 0.037 0
 0.585 0.037 0
 0.587 0.037 0
 0.589 0.037 0
 0.591 0.037 0
 0.593 0.037 0
 0.595 0.037 0
 0.597 0.037 0
 0.599 0.037 0
 0.501 0.039 0
 0.503 0.039 0
 0.505 0.039 0
 0.507 0.039 0
 0.509 0.039 0
 0.511 0.039 0
 0.513 0.039 0
 0.515 0.039 0
 0.517 0.039 0
 0.519 0.039 0
 0.521 0.039 0
 0.523 0.039 0
 0.525 0.039 0
 0.527 0.039 0
 0.529 0.039 0
 0.531 0.039 0
 0.533 0.039 0
 0.535 0.039 0
 0.537 0.039 0
 0.539 0.039 0
 0.541 0.039 0
 0.543 0.039 0
 0.545 0.039 0
 0.547 0.039 0
 0.549 0.039 0
 0.551 0.039 0
 0.553 0.039 0
 0.555 0.039 0
 0.557 0.039 0
 0.559 0.039 0
 0.561 0.039 0
 0.563 0.039 0
 0.565 0.039 0
 0.567 0.039 0
 0.569 0.039 0
 0.571 0.039 0
 0.573 0.039 0
 0.575 0.039 0
 0.577 0.039 0
 0.579 0.039 0
 0.581 0.039 0
 0.583 0.039 0
 0.585 0.039 0
 0.587 0.039 0
 0.589 0.039 0
 0.591 0.039 0
 0.593 0.039 0
 0.595 0.039 0
 0.597 0.039 0
 0.599 0.039 0
 0.501 0.041 0
 0.503 0.041 0
 0.505 0.041 0
 0.507 0.041 0
 0.509 0.041 0
 0.511 0.041 0
 0.513 0.041 0
 0.515 0.041 0
 0.517 0.041 0
 0.519 0.041 0
 0.521 0.041 0
 0.523 0.041 0
 0.525 0.041 0
 0.527 0.041 0
 0.529 0.041 0
 0.531 0.041 0
 0.533 0.041 0
 0.535 0.041 0
 0.537 0.041 0
 0.539 0.041 0
 0.541 0.041 0
 0.543 0.041 0
 0.545 0.041 0
 0.547 0.041 0
 0.549 0.041 0
 0.551 0.041 0
 0.553 0.041 0
 0.555 0.041 0
 0.557 0.041 0
 0.559 0.041 0
 0.561 0.041 0
 0.563 0.041 0
 0.565 0.041 0
 0.567 0.041 0
 0.569 0.041 0
 0.571 0.041 0
 0.573 0.041 0
 0.575 0.041 0
 0.577 0.041 0
 0.579 0.041 0
 0.581 0.041 0
 0.583 0.041 0
 0.585 0.041 0
 0.587 0.041 0
 0.589 0.041 0
 0.591 0.041 0
 0.593 0.041 0
 0.595 0.041 0
 0.597 0.041 0
 0.599 0.041 0
 0.501 0.043 0
 0.503 0.043 0
 0.505 0.043 0
 0.507 0.043 0
 0.509 0.043 0
 0.511 0.043 0
 0.513 0.043 0
 0.515 0.043 0
 0.517 0.043 0
 0.519 0.043 0
 0.521 0.043 0
 0.523 0.043 0
 0.525 0.043 0
 0.527 0.043 0
 0.529 0.043 0
 0.531 0.043 0
 0.533 0.043 0
 0.535 0.043 0
 0.537 0.043 0
 0.539 0.043 0
 0.541 0.043 0
 0.543 0.043 0
 0.545 0.043 0
 0.547 0.043 0
 0.549 0.043 0
 0.551 0.043 0
 0.553 0.043 0
 0.555 0.043 0
 0.557 0.043 0
 0.559 0.043 0
 0.561 0.043 0
 0.563 0.043 0
 0.565 0.043 0
 0.567 0.043 0
 0.569 0.043 0
 0.571 0.043 0
 0.573 0.043 0
 0.575 0.043 0
 0.577 0.043 0
 0.579 0.043 0
 0.581 0.043 0
 0.583 0.043 0
 0.585 0.043 0
 0.587 0.043 0
 0.589 0.043 0
 0.591 0.043 0
 0.593 0.043 0
 0.595 0.043 0
 0.597 0.043 0
 0.599 0.043 0
 0.501 0.045 0
 0.503 0.045 0
 0.505 0.045 0
 0.507 0.045 0
 0.509 0.045 0
 0.511 0.045 0
 0.513 0.045 0
 0.515 0.045 0
 0.517 0.045 0
 0.519 0.045 0
 0.521 0.045 0
 0.523 0.045 0
 0.525 0.045 0
 0.527 0.045 0
 0.529 0.045 0
 0.531 0.045 0
 0.533 0.045 0
 0.535 0.045 0
 0.537 0.045 0
 0.539 0.045 0
 0.541 0.045 0
 0.543 0.045 0
 0.545 0.045 0
 0.547 0.045 0
 0.549 0.045 0
 0.551 0.045 0
 0.553 0.045 0
 0.555 0.045 0
 0.557 0.045 0
 0.559 0.045 0
 0.561 0.045 0
 0.563 0.045 0
 0.565 0.045 0
 0.567 0.045 0
 0.569 0.045 0
 0.571 0.045 0
 0.573 0.045 0
 0.575 0.045 0
 0.577 0.045 0
 0.579 0.045 0
 0.581 0.045 0
 0.583 0.045 0
 0.585 0.045 0
 0.587 0.045 0
 0.589 0.045 0
 0.591 0.045 0
 0.593 0.045 0
 0.595 0.045 0
 0.597 0.045 0
 0.599 0.045 0
 0.501 0.047 0
 0.503 0.047 0
 0.505 0.047 0
 0.507 0.047 0
 0.509 0.047 0
 0.511 0.047 0
 0.513 0.047 0
 0.515 0.047 0
 0.517 0.047 0
 0.519 0.047 0
 0.521 0.047 0
 0.523 0.047 0
 0.525 0.047 0
 0.527 0.047 0
 0.529 0.047 0
 0.531 0.047 0
 0.533 0.047 0
 0.535 0.047 0
 0.537 0.047 0
 0.539 0.047 0
 0.541 0.047 0
 0.543 0.047 0
 0.545 0.047 0
 0.547 0.047 0
 0.549 0.047 0
 0.551 0.047 0
 0.553 0.047 0
 0.555 0.047 0
 0.557 0.047 0
 0.559 0.047 0
 0.561 0.047 0
 0.563 0.047 0
 0.565 0.047 0
 0.567 0.047 0
 0.569 0.047 0
 0.571 0.047 0
 0.573 0.047 0
 0.575 0.047 0
 0.577 0.047 0
 0.579 0.047 0
 0.581 0.047 0
 0.583 0.047 0
 0.585 0.047 0
 0.587 0.047 0
 0.589 0.047 0
 0.591 0.047 0
 0.593 0.047 0
 0.595 0.047 0
 0.597 0.047 0
 0.599 0.047 0
 0.501 0.049 0
 0.503 0.049 0
 0.505 0.049 0
 0.507 0.049 0
 0.509 0.049 0
 0.511 0.049 0
 0.513 0.049 0
 0.515 0.049 0
 0.517 0.049 0
 0.519 0.049 0
 0.521 0.049 0
 0.523 0.049 0
 0.525 0.049 0
 0.527 0.049 0
 0.529 0.049 0
 0.531 0.049 0
 0.533 0.049 0
 0.535 0.049 0
 0.537 0.049 0
 0.539 0.049 0
 0.541 0.049 0
 0.543 0.049 0
 0.545 0.049 0
 0.547 0.049 0
 0.549 0.049 0
 0.551 0.049 0
 0.553 0.049 0
 0.555 0.049 0
 0.557 0.049 0
 0.559 0.049 0
 0.561 0.049 0
 0.563 0.049 0
 0.565 0.049 0
 0.567 0.049 0
 0.569 0.049 0
 0.571 0.049 0
 0.573 0.049 0
 0.575 0.049 0
 0.577 0.049 0
 0.579 0.049 0
 0.581 0.049 0
 0.583 0.049 0
 0.585 0.049 0
 0.587 0.049 0
 0.589 0.049 0
 0.591 0.049 0
 0.593 0.049 0
 0.595 0.049 0
 0.597 0.049 0
 0.599 0.049 0
 0.501 0.051 0
 0.503 0.051 0
 0.505 0.051 0
 0.507 0.051 0
 0.509 0.051 0
 0.511 0.051 0
 0.513 0.051 0
 0.515 0.051 0
 0.517 0.051 0
 0.519 0.051 0
 0.521 0.051 0
 0.523 0.051 0
 0.525 0.051 0
 0.527 0.051 0
 0.529 0.051 0
 0.531 0.051 0
 0.533 0.051 0
 0.535 0.051 0
 0.537 0.051 0
 0.539 0.051 0
 0.541 0.051 0
 0.543 0.051 0
 0.545 0.051 0
 0.547 0.051 0
 0.549 0.051 0
 0.551 0.051 0
 0.553 0.051 0
 0.555 0.051 0
 0.557 0.051 0
 0.559 0.051 0
 0.561 0.051 0
 0.563 0.051 0
 0.565 0.051 0
 0.567 0.051 0
 0.569 0.051 0
 0.571 0.051 0
 0.573 0.051 0
 0.575 0.051 0
 0.577 0.051 0
 0.579 0.051 0
 0.581 0.051 0
 0.583 0.051 0
 0.585 0.051 0
 0.587 0.051 0
 0.589 0.051 0
 0.591 0.051 0
 0.593 0.051 0
 0.595 0.051 0
 0.597 0.051 0
 0.599 0.051 0
 0.501 0.053 0
 0.503 0.053 0
 0.505 0.053 0
 0.507 0.053 0
 0.509 0.053 0
 0.511 0.053 0
 0.513 0.053 0
 0.515 0.053 0
 0.517 0.053 0
 0.519 0.053 0
 0.521 0.053 0
 0.523 0.053 0
 0.525 0.053 0
 0.527 0.053 0
 0.529 0.053 0
 0.531 0.053 0
 0.533 0.053 0
 0.535 0.053 0
 0.537 0.053 0
 0.539 0.053 0
 0.541 0.053 0
 0.543 0.053 0
 0.545 0.053 0
 0.547 0.053 0
 0.549 0.053 0
 0.551 0.053 0
 0.553 0.053 0
 0.555 0.053 0
 0.557 0.053 0
 0.559 0.053 0
 0.561 0.053 0
 0.563 0.053 0
 0.565 0.053 0
 0.567 0.053 0
 0.569 0.053 0
 0.571 0.053 0
 0.573 0.053 0
 0.575 0.053 0
 0.577 0.053 0
 0.579 0.053 0
 0.581 0.053 0
 0.583 0.053 0
 0.585 0.053 0
 0.587 0.053 0
 0.589 0.053 0
 0.591 0.053 0
 0.593 0.053 0
 0.595 0.053 0
 0.597 0.053 0
 0.599 0.053 0
 0.501 0.055 0
 0.503 0.055 0
 0.505 0.055 0
 0.507 0.055 0
 0.509 0.055 0
 0.511 0.055 0
 0.513 0.055 0
 0.515 0.055 0
 0.517 0.055 0
 0.519 0.055 0
 0.521 0.055 0
 0.523 0.055 0
 0.525 0.055 0
 0.527 0.055 0
 0.529 0.055 0
 0.531 0.055 0
 0.533 0.055 0
 0.535 0.055 0
 0.537 0.055 0
 0.539 0.055 0
 0.541 0.055 0
 0.543 0.055 0
 0.545 0.055 0
 0.547 0.055 0
 0.549 0.055 0
 0.551 0.055 0
 0.553 0.055 0
 0.555 0.055 0
 0.557 0.055 0
 0.559 0.055 0
 0.561 0.055 0
 0.563 0.055 0
 0.565 0.055 0
 0.567 0.055 0
 0.569 0.055 0
 0.571 0.055 0
 0.573 0.055 0
 0.575 0.055 0
 0.577 0.055 0
 0.579 0.055 0
 0.581 0.055 0
 0.583 0.055 0
 0.585 0.055 0
 0.587 0.055 0
 0.589 0.055 0
 0.591 0.055 0
 0.593 0.055 0
 0.595 0.055 0
 0.597 0.055 0
 0.599 0.055 0
 0.501 0.057 0
 0.503 0.057 0
 0.505 0.057 0
 0.507 0.057 0
 0.509 0.057 0
 0.511 0.057 0
 0.513 0.057 0
 0.515 0.057 0
 0.517 0.057 0
 0.519 0.057 0
 0.521 0.057 0
 0.523 0.057 0
 0.525 0.057 0
 0.527 0.057 0
 0.529 0.057 0
 0.531 0.057 0
 0.533 0.057 0
 0.535 0.057 0
 0.537 0.057 0
 0.539 0.057 0
 0.541 0.057 0
 0.543 0.057 0
 0.545 0.057 0
 0.547 0.057 0
 0.549 0.057 0
 0.551 0.057 0
 0.553 0.057 0
 0.555 0.057 0
 0.557 0.057 0
 0.559 0.057 0
 0.561 0.057 0
 0.563 0.057 0
 0.565 0.057 0
 0.567 0.057 0
 0.569 0.057 0
 0.571 0.057 0
 0.573 0.057 0
 0.575 0.057 0
 0.577 0.057 0
 0.579 0.057 0
 0.581 0.057 0
 0.583 0.057 0
 0.585 0.057 0
 0.587 0.057 0
 0.589 0.057 0
 0.591 0.057 0
 0.593 0.057 0
 0.595 0.057 0
 0.597 0.057 0
 0.599 0.057 0
 0.501 0.059 0
 0.503 0.059 0
 0.505 0.059 0
 0.507 0.059 0
 0.509 0.059 0
 0.511 0.059 0
 0.513 0.059 0
 0.515 0.059 0
 0.517 0.059 0
 0.519 0.059 0
 0.521 0.059 0
 0.523 0.059 0
 0.525 0.059 0
 0.527 0.059 0
 0.529 0.059 0
 0.531 0.059 0
 0.533 0.059 0
 0.535 0.059 0
 0.537 0.059 0
 0.539 0.059 0
 0.541 0.059 0
 0.543 0.059 0
 0.545 0.059 0
 0.547 0.059 0
 0.549 0.059 0
 0.551 0.059 0
 0.553 0.059 0
 0.555 0.059 0
 0.557 0.059 0
 0.559 0.059 0
 0.561 0.059 0
 0.563 0.059 0
 0.565 0.059 0
 0.567 0.059 0
 0.569 0.059 0
 0.571 0.059 0
 0.573 0.059 0
 0.575 0.059 0
 0.577 0.059 0
 0.579 0.059 0
 0.581 0.059 0
 0.583 0.059 0
 0.585 0.059 0
 0.587 0.059 0
 0.589 0.059 0
 0.591 0.059 0
 0.593 0.059 0
 0.595 0.059 0
 0.597 0.059 0
 0.599 0.059 0
 0.501 0.061 0
 0.503 0.061 0
 0.505 0.061 0
 0.507 0.061 0
 0.509 0.061 0
 0.511 0.061 0
 0.513 0.061 0
 0.515 0.061 0
 0.517 0.061 0
 0.519 0.061 0
 0.521 0.061 0
 0.523 0.061 0
 0.525 0.061 0
 0.527 0.061 0
 0.529 0.061 0
 0.531 0.061 0
 0.533 0.061 0
 0.535 0.061 0
 0.537 0.061 0
 0.539 0.061 0
 0.541 0.061 0
 0.543 0.061 0
 0.545 0.061 0
 0.547 0.061 0
 0.549 0.061 0
 0.551 0.061 0
 0.553 0.061 0
 0.555 0.061 0
 0.557 0.061 0
 0.559 0.061 0
 0.561 0.061 0
 0.563 0.061 0
 0.565 0.061 0
 0.567 0.061 0
 0.569 0.061 0
 0.571 0.061 0
 0.573 0.061 0
 0.575 0.061 0
 0.577 0.061 0
 0.579 0.061 0
 0.581 0.061 0
 0.583 0.061 0
 0.585 0.061 0
 0.587 0.061 0
 0.589 0.061 0
 0.591 0.061 0
 0.593 0.061 0
 0.595 0.061 0
 0.597 0.061 0
 0.599 0.061 0
 0.501 0.063 0
 0.503 0.063 0
 0.505 0.063 0
 0.507 0.063 0
 0.509 0.063 0
 0.511 0.063 0
 0.513 0.063 0
 0.515 0.063 0
 0.517 0.063 0
 0.519 0.063 0
 0.521 0.063 0
 0.523 0.063 0
 0.525 0.063 0
 0.527 0.063 0
 0.529 0.063 0
 0.531 0.063 0
 0.533 0.063 0
 0.535 0.063 0
 0.537 0.063 0
 0.539 0.063 0
 0.541 0.063 0
 0.543 0.063 0
 0.545 0.063 0
 0.547 0.063 0
 0.549 0.063 0
 0.551 0.063 0
 0.553 0.063 0
 0.555 0.063 0
 0.557 0.063 0
 0.559 0.063 0
 0.561 0.063 0
 0.563 0.063 0
 0.565 0.063 0
 0.567 0.063 0
 0.569 0.063 0
 0.571 0.063 0
 0.573 0.063 0
 0.575 0.063 0
 0.577 0.063 0
 0.579 0.063 0
 0.581 0.063 0
 0.583 0.063 0
 0.585 0.063 0
 0.587 0.063 0
 0.589 0.063 0
 0.591 0.063 0
 0.593 0.063 0
 0.595 0.063 0
 0.597 0.063 0
 0.599 0.063 0
 0.501 0.065 0
 0.503 0.065 0
 0.505 0.065 0
 0.507 0.065 0
 0.509 0.065 0
 0.511 0.065 0
 0.513 0.065 0
 0.515 0.065 0
 0.517 0.065 0
 0.519 0.065 0
 0.521 0.065 0
 0.523 0.065 0
 0.525 0.065 0
 0.527 0.065 0
 0.529 0.065 0
 0.531 0.065 0
 0.533 0.065 0
 0.535 0.065 0
 0.537 0.065 0
 0.539 0.065 0
 0.541 0.065 0
 0.543 0.065 0
 0.545 0.065 0
 0.547 0.065 0
 0.549 0.065 0
 0.551 0.065 0
 0.553 0.065 0
 0.555 0.065 0
 0.557 0.065 0
 0.559 0.065 0
 0.561 0.065 0
 0.563 0.065 0
 0.565 0.065 0
 0.567 0.065 0
 0.569 0.065 0
 0.571 0.065 0
 0.573 0.065 0
 0.575 0.065 0
 0.577 0.065 0
 0.579 0.065 0
 0.581 0.065 0
 0.583 0.065 0
 0.585 0.065 0
 0.587 0.065 0
 0.589 0.065 0
 0.591 0.065 0
 0.593 0.065 0
 0.595 0.065 0
 0.597 0.065 0
 0.599 0.065 0
 0.501 0.067 0
 0.503 0.067 0
 0.505 0.067 0
 0.507 0.067 0
 0.509 0.067 0
 0.511 0.067 0
 0.513 0.067 0
 0.515 0.067 0
 0.517 0.067 0
 0.519 0.067 0
 0.521 0.067 0
 0.523 0.067 0
 0.525 0.067 0
 0.527 0.067 0
 0.529 0.067 0
 0.531 0.067 0
 0.533 0.067 0
 0.535 0.067 0
 0.537 0.067 0
 0.539 0.067 0
 0.541 0.067 0
 0.543 0.067 0
 0.545 0.067 0
 0.547 0.067 0
 0.549 0.067 0
 0.551 0.067 0
 0.553 0.067 0
 0.555 0.067 0
 0.557 0.067 0
 0.559 0.067 0
 0.561 0.067 0
 0.563 0.067 0
 0.565 0.067 0
 0.567 0.067 0
 0.569 0.067 0
 0.571 0.067 0
 0.573 0.067 0
 0.575 0.067 0
 0.577 0.067 0
 0.579 0.067 0
 0.581 0.067 0
 0.583 0.067 0
 0.585 0.067 0
 0.587 0.067 0
 0.589 0.067 0
 0.591 0.067 0
 0.593 0.067 0
 0.595 0.067 0
 0.597 0.067 0
 0.599 0.067 0
 0.501 0.069 0
 0.503 0.069 0
 0.505 0.069 0
 0.507 0.069 0
 0.509 0.069 0
 0.511 0.069 0
 0.513 0.069 0
 0.515 0.069 0
 0.517 0.069 0
 0.519 0.069 0
 0.521 0.069 0
 0.523 0.069 0
 0.525 0.069 0
 0.527 0.069 0
 0.529 0.069 0
 0.531 0.069 0
 0.533 0.069 0
 0.535 0.069 0
 0.537 0.069 0
 0.539 0.069 0
 0.541 0.069 0
 0.543 0.069 0
 0.545 0.069 0
 0.547 0.069 0
 0.549 0.069 0
 0.551 0.069 0
 0.553 0.069 0
 0.555 0.069 0
 0.557 0.069 0
 0.559 0.069 0
 0.561 0.069 0
 0.563 0.069 0
 0.565 0.069 0
 0.567 0.069 0
 0.569 0.069 0
 0.571 0.069 0
 0.573 0.069 0
 0.575 0.069 0
 0.577 0.069 0
 0.579 0.069 0
 0.581 0.069 0
 0.583 0.069 0
 0.585 0.069 0
 0.587 0.069 0
 0.589 0.069 0
 0.591 0.069 0
 0.593 0.069 0
 0.595 0.069 0
 0.597 0.069 0
 0.599 0.069 0
 0.501 0.071 0
 0.503 0.071 0
 0.505 0.071 0
 0.507 0.071 0
 0.509 0.071 0
 0.511 0.071 0
 0.513 0.071 0
 0.515 0.071 0
 0.517 0.071 0
 0.519 0.071 0
 0.521 0.071 0
 0.523 0.071 0
 0.525 0.071 0
 0.527 0.071 0
 0.529 0.071 0
 0.531 0.071 0
 0.533 0.071 0
 0.535 0.071 0
 0.537 0.071 0
 0.539 0.071 0
 0.541 0.071 0
 0.543 0.071 0
 0.545 0.071 0
 0.547 0.071 0
 0.549 0.071 0
 0.551 0.071 0
 0.553 0.071 0
 0.555 0.071 0
 0.557 0.071 0
 0.559 0.071 0
 0.561 0.071 0
 0.563 0.071 0
 0.565 0.071 0
 0.567 0.071 0
 0.569 0.071 0
 0.571 0.071 0
 0.573 0.071 0
 0.575 0.071 0
 0.577 0.071 0
 0.579 0.071 0
 0.581 0.071 0
 0.583 0.071 0
 0.585 0.071 0
 0.587 0.071 0
 0.589 0.071 0
 0.591 0.071 0
 0.593 0.071 0
 0.595 0.071 0
 0.597 0.071 0
 0.599 0.071 0
 0.501 0.073 0
 0.503 0.073 0
 0.505 0.073 0
 0.507 0.073 0
 0.509 0.073 0
 0.511 0.073 0
 0.513 0.073 0
 0.515 0.073 0
 0.517 0.073 0
 0.519 0.073 0
 0.521 0.073 0
 0.523 0.073 0
 0.525 0.073 0
 0.527 0.073 0
 0.529 0.073 0
 0.531 0.073 0
 0.533 0.073 0
 0.535 0.073 0
 0.537 0.073 0
 0.539 0.073 0
 0.541 0.073 0
 0.543 0.073 0
 0.545 0.073 0
 0.547 0.073 0
 0.549 0.073 0
 0.551 0.073 0
 0.553 0.073 0
 0.555 0.073 0
 0.557 0.073 0
 0.559 0.073 0
 0.561 0.073 0
 0.563 0.073 0
 0.565 0.073 0
 0.567 0.073 0
 0.569 0.073 0
 0.571 0.073 0
 0.573 0.073 0
 0.575 0.073 0
 0.577 0.073 0
 0.579 0.073 0
 0.581 0.073 0
 0.583 0.073 0
 0.585 0.073 0
 0.587 0.073 0
 0.589 0.073 0
 0.591 0.073 0
 0.593 0.073 0
 0.595 0.073 0
 0.597 0.073 0
 0.599 0.073 0
 0.501 0.075 0
 0.503 0.075 0
 0.505 0.075 0
 0.507 0.075 0
 0.509 0.075 0
 0.511 0.075 0
 0.513 0.075 0
 0.515 0.075 0
 0.517 0.075 0
 0.519 0.075 0
 0.521 0.075 0
 0.523 0.075 0
 0.525 0.075 0
 0.527 0.075 0
 0.529 0.075 0
 0.531 0.075 0
 0.533 0.075 0
 0.535 0.075 0
 0.537 0.075 0
 0.539 0.075 0
 0.541 0.075 0
 0.543 0.075 0
 0.545 0.075 0
 0.547 0.075 0
 0.549 0.075 0
 0.551 0.075 0
 0.553 0.075 0
 0.555 0.075 0
 0.557 0.075 0
 0.559 0.075 0
 0.561 0.075 0
 0.563 0.075 0
 0.565 0.075 0
 0.567 0.075 0
 0.569 0.075 0
 0.571 0.075 0
 0.573 0.075 0
 0.575 0.075 0
 0.577 0.075 0
 0.579 0.075 0
 0.581 0.075 0
 0.583 0.075 0
 0.585 0.075 0
 0.587 0.075 0
 0.589 0.075 0
 0.591 0.075 0
 0.593 0.075 0
 0.595 0.075 0
 0.597 0.075 0
 0.599 0.075 0
 0.501 0.077 0
 0.503 0.077 0
 0.505 0.077 0
 0.507 0.077 0
 0.509 0.077 0
 0.511 0.077 0
 0.513 0.077 0
 0.515 0.077 0
 0.517 0.077 0
 0.519 0.077 0
 0.521 0.077 0
 0.523 0.077 0
 0.525 0.077 0
 0.527 0.077 0
 0.529 0.077 0
 0.531 0.077 0
 0.533 0.077 0
 0.535 0.077 0
 0.537 0.077 0
 0.539 0.077 0
 0.541 0.077 0
 0.543 0.077 0
 0.545 0.077 0
 0.547 0.077 0
 0.549 0.077 0
 0.551 0.077 0
 0.553 0.077 0
 0.555 0.077 0
 0.557 0.077 0
 0.559 0.077 0
 0.561 0.077 0
 0.563 0.077 0
 0.565 0.077 0
 0.567 0.077 0
 0.569 0.077 0
 0.571 0.077 0
 0.573 0.077 0
 0.575 0.077 0
 0.577 0.077 0
 0.579 0.077 0
 0.581 0.077 0
 0.583 0.077 0
 0.585 0.077 0
 0.587 0.077 0
 0.589 0.077 0
 0.591 0.077 0
 0.593 0.077 0
 0.595 0.077 0
 0.597 0.077 0
 0.599 0.077 0
 0.501 0.079 0
 0.503 0.079 0
 0.505 0.079 0
 0.507 0.079 0
 0.509 0.079 0
 0.511 0.079 0
 0.513 0.079 0
 0.515 0.079 0
 0.517 0.079 0
 0.519 0.079 0
 0.521 0.079 0
 0.523 0.079 0
 0.525 0.079 0
 0.527 0.079 0
 0.529 0.079 0
 0.531 0.079 0
 0.533 0.079 0
 0.535 0.079 0
 0.537 0.079 0
 0.539 0.079 0
 0.541 0.079 0
 0.543 0.079 0
 0.545 0.079 0
 0.547 0.079 0
 0.549 0.079 0
 0.551 0.079 0
 0.553 0.079 0
 0.555 0.079 0
 0.557 0.079 0
 0.559 0.079 0
 0.561 0.079 0
 0.563 0.079 0
 0.565 0.079 0
 0.567 0.079 0
 0.569 0.079 0
 0.571 0.079 0
 0.573 0.079 0
 0.575 0.079 0
 0.577 0.079 0
 0.579 0.079 0
 0.581 0.079 0
 0.583 0.079 0
 0.585 0.079 0
 0.587 0.079 0
 0.589 0.079 0
 0.591 0.079 0
 0.593 0.079 0
 0.595 0.079 0
 0.597 0.079 0
 0.599 0.079 0
 0.501 0.081 0
 0.503 0.081 0
 0.505 0.081 0
 0.507 0.081 0
 0.509 0.081 0
 0.511 0.081 0
 0.513 0.081 0
 0.515 0.081 0
 0.517 0.081 0
 0.519 0.081 0
 0.521 0.081 0
 0.523 0.081 0
 0.525 0.081 0
 0.527 0.081 0
 0.529 0.081 0
 0.531 0.081 0
 0.533 0.081 0
 0.535 0.081 0
 0.537 0.081 0
 0.539 0.081 0
 0.541 0.081 0
 0.543 0.081 0
 0.545 0.081 0
 0.547 0.081 0
 0.549 0.081 0
 0.551 0.081 0
 0.553 0.081 0
 0.555 0.081 0
 0.557 0.081 0
 0.559 0.081 0
 0.561 0.081 0
 0.563 0.081 0
 0.565 0.081 0
 0.567 0.081 0
 0.569 0.081 0
 0.571 0.081 0
 0.573 0.081 0
 0.575 0.081 0
 0.577 0.081 0
 0.579 0.081 0
 0.581 0.081 0
 0.583 0.081 0
 0.585 0.081 0
 0.587 0.081 0
 0.589 0.081 0
 0.591 0.081 0
 0.593 0.081 0
 0.595 0.081 0
 0.597 0.081 0
 0.599 0.081 0
 0.501 0.083 0
 0.503 0.083 0
 0.505 0.083 0
 0.507 0.083 0
 0.509 0.083 0
 0.511 0.083 0
 0.513 0.083 0
 0.515 0.083 0
 0.517 0.083 0
 0.519 0.083 0
 0.521 0.083 0
 0.523 0.083 0
 0.525 0.083 0
 0.527 0.083 0
 0.529 0.083 0
 0.531 0.083 0
 0.533 0.083 0
 0.535 0.083 0
 0.537 0.083 0
 0.539 0.083 0
 0.541 0.083 0
 0.543 0.083 0
 0.545 0.083 0
 0.547 0.083 0
 0.549 0.083 0
 0.551 0.083 0
 0.553 0.083 0
 0.555 0.083 0
 0.557 0.083 0
 0.559 0.083 0
 0.561 0.083 0
 0.563 0.083 0
 0.565 0.083 0
 0.567 0.083 0
 0.569 0.083 0
 0.571 0.083 0
 0.573 0.083 0
 0.575 0.083 0
 0.577 0.083 0
 0.579 0.083 0
 0.581 0.083 0
 0.583 0.083 0
 0.585 0.083 0
 0.587 0.083 0
 0.589 0.083 0
 0.591 0.083 0
 0.593 0.083 0
 0.595 0.083 0
 0.597 0.083 0
 0.599 0.083 0
 0.501 0.085 0
 0.503 0.085 0
 0.505 0.085 0
 0.507 0.085 0
 0.509 0.085 0
 0.511 0.085 0
 0.513 0.085 0
 0.515 0.085 0
 0.517 0.085 0
 0.519 0.085 0
 0.521 0.085 0
 0.523 0.085 0
 0.525 0.085 0
 0.527 0.085 0
 0.529 0.085 0
 0.531 0.085 0
 0.533 0.085 0
 0.535 0.085 0
 0.537 0.085 0
 0.539 0.085 0
 0.541 0.085 0
 0.543 0.085 0
 0.545 0.085 0
 0.547 0.085 0
 0.549 0.085 0
 0.551 0.085 0
 0.553 0.085 0
 0.555 0.085 0
 0.557 0.085 0
 0.559 0.085 0
 0.561 0.085 0
 0.563 0.085 0
 0.565 0.085 0
 0.567 0.085 0
 0.569 0.085 0
 0.571 0.085 0
 0.573 0.085 0
 0.575 0.085 0
 0.577 0.085 0
 0.579 0.085 0
 0.581 0.085 0
 0.583 0.085 0
 0.585 0.085 0
 0.587 0.085 0
 0.589 0.085 0
 0.591 0.085 0
 0.593 0.085 0
 0.595 0.085 0
 0.597 0.085 0
 0.599 0.085 0
 0.501 0.087 0
 0.503 0.087 0
 0.505 0.087 0
 0.507 0.087 0
 0.509 0.087 0
 0.511 0.087 0
 0.513 0.087 0
 0.515 0.087 0
 0.517 0.087 0
 0.519 0.087 0
 0.521 0.087 0
 0.523 0.087 0
 0.525 0.087 0
 0.527 0.087 0
 0.529 0.087 0
 0.531 0.087 0
 0.533 0.087 0
 0.535 0.087 0
 0.537 0.087 0
 0.539 0.087 0
 0.541 0.087 0
 0.543 0.087 0
 0.545 0.087 0
 0.547 0.087 0
 0.549 0.087 0
 0.551 0.087 0
 0.553 0.087 0
 0.555 0.087 0
 0.557 0.087 0
 0.559 0.087 0
 0.561 0.087 0
 0.563 0.087 0
 0.565 0.087 0
 0.567 0.087 0
 0.569 0.087 0
 0.571 0.087 0
 0.573 0.087 0
 0.575 0.087 0
 0.577 0.087 0
 0.579 0.087 0
 0.581 0.087 0
 0.583 0.087 0
 0.585 0.087 0
 0.587 0.087 0
 0.589 0.087 0
 0.591 0.087 0
 0.593 0.087 0
 0.595 0.087 0
 0.597 0.087 0
 0.599 0.087 0
 0.501 0.089 0
 0.503 0.089 0
 0.505 0.089 0
 0.507 0.089 0
 0.509 0.089 0
 0.511 0.089 0
 0.513 0.089 0
 0.515 0.089 0
 0.517 0.089 0
 0.519 0.089 0
 0.521 0.089 0
 0.523 0.089 0
 0.525 0.089 0
 0.527 0.089 0
 0.529 0.089 0
 0.531 0.089 0
 0.533 0.089 0
 0.535 0.089 0
 0.537 0.089 0
 0.539 0.089 0
 0.541 0.089 0
 0.543 0.089 0
 0.545 0.089 0
 0.547 0.089 0
 0.549 0.089 0
 0.551 0.089 0
 0.553 0.089 0
 0.555 0.089 0
 0.557 0.089 0
 0.559 0.089 0
 0.561 0.089 0
 0.563 0.089 0
 0.565 0.089 0
 0.567 0.089 0
 0.569 0.089 0
 0.571 0.089 0
 0.573 0.089 0
 0.575 0.089 0
 0.577 0.089 0
 0.579 0.089 0
 0.581 0.089 0
 0.583 0.089 0
 0.585 0.089 0
 0.587 0.089 0
 0.589 0.089 0
 0.591 0.089 0
 0.593 0.089 0
 0.595 0.089 0
 0.597 0.089 0
 0.599 0.089 0
 0.501 0.091 0
 0.503 0.091 0
 0.505 0.091 0
 0.507 0.091 0
 0.509 0.091 0
 0.511 0.091 0
 0.513 0.091 0
 0.515 0.091 0
 0.517 0.091 0
 0.519 0.091 0
 0.521 0.091 0
 0.523 0.091 0
 0.525 0.091 0
 0.527 0.091 0
 0.529 0.091 0
 0.531 0.091 0
 0.533 0.091 0
 0.535 0.091 0
 0.537 0.091 0
 0.539 0.091 0
 0.541 0.091 0
 0.543 0.091 0
 0.545 0.091 0
 0.547 0.091 0
 0.549 0.091 0
 0.551 0.091 0
 0.553 0.091 0
 0.555 0.091 0
 0.557 0.091 0
 0.559 0.091 0
 0.561 0.091 0
 0.563 0.091 0
 0.565 0.091 0
 0.567 0.091 0
 0.569 0.091 0
 0.571 0.091 0
 0.573 0.091 0
 0.575 0.091 0
 0.577 0.091 0
 0.579 0.091 0
 0.581 0.091 0
 0.583 0.091 0
 0.585 0.091 0
 0.587 0.091 0
 0.589 0.091 0
 0.591 0.091 0
 0.593 0.091 0
 0.595 0.091 0
 0.597 0.091 0
 0.599 0.091 0
 0.501 0.093 0
 0.503 0.093 0
 0.505 0.093 0
 0.507 0.093 0
 0.509 0.093 0
 0.511 0.093 0
 0.513 0.093 0
 0.515 0.093 0
 0.517 0.093 0
 0.519 0.093 0
 0.521 0.093 0
 0.523 0.093 0
 0.525 0.093 0
 0.527 0.093 0
 0.529 0.093 0
 0.531 0.093 0
 0.533 0.093 0
 0.535 0.093 0
 0.537 0.093 0
 0.539 0.093 0
 0.541 0.093 0
 0.543 0.093 0
 0.545 0.093 0
 0.547 0.093 0
 0.549 0.093 0
 0.551 0.093 0
 0.553 0.093 0
 0.555 0.093 0
 0.557 0.093 0
 0.559 0.093 0
 0.561 0.093 0
 0.563 0.093 0
 0.565 0.093 0
 0.567 0.093 0
 0.569 0.093 0
 0.571 0.093 0
 0.573 0.093 0
 0.575 0.093 0
 0.577 0.093 0
 0.579 0.093 0
 0.581 0.093 0
 0.583 0.093 0
 0.585 0.093 0
 0.587 0.093 0
 0.589 0.093 0
 0.591 0.093 0
 0.593 0.093 0
 0.595 0.093 0
 0.597 0.093 0
 0.599 0.093 0
 0.501 0.095 0
 0.503 0.095 0
 0.505 0.095 0
 0.507 0.095 0
 0.509 0.095 0
 0.511 0.095 0
 0.513 0.095 0
 0.515 0.095 0
 0.517 0.095 0
 0.519 0.095 0
 0.521 0.095 0
 0.523 0.095 0
 0.525 0.095 0
 0.527 0.095 0
 0.529 0.095 0
 0.531 0.095 0
 0.533 0.095 0
 0.535 0.095 0
 0.537 0.095 0
 0.539 0.095 0
 0.541 0.095 0
 0.543 0.095 0
 0.545 0.095 0
 0.547 0.095 0
 0.549 0.095 0
 0.551 0.095 0
 0.553 0.095 0
 0.555 0.095 0
 0.557 0.095 0
 0.559 0.095 0
 0.561 0.095 0
 0.563 0.095 0
 0.565 0.095 0
 0.567 0.095 0
 0.569 0.095 0
 0.571 0.095 0
 0.573 0.095 0
 0.575 0.095 0
 0.577 0.095 0
 0.579 0.095 0
 0.581 0.095 0
 0.583 0.095 0
 0.585 0.095 0
 0.587 0.095 0
 0.589 0.095 0
 0.591 0.095 0
 0.593 0.095 0
 0.595 0.095 0
 0.597 0.095 0
 0.599 0.095 0
 0.501 0.097 0
 0.503 0.097 0
 0.505 0.097 0
 0.507 0.097 0
 0.509 0.097 0
 0.511 0.097 0
 0.513 0.097 0
 0.515 0.097 0
 0.517 0.097 0
 0.519 0.097 0
 0.521 0.097 0
 0.523 0.097 0
 0.525 0.097 0
 0.527 0.097 0
 0.529 0.097 0
 0.531 0.097 0
 0.533 0.097 0
 0.535 0.097 0
 0.537 0.097 0
 0.539 0.097 0
 0.541 0.097 0
 0.543 0.097 0
 0.545 0.097 0
 0.547 0.097 0
 0.549 0.097 0
 0.551 0.097 0
 0.553 0.097 0
 0.555 0.097 0
 0.557 0.097 0
 0.559 0.097 0
 0.561 0.097 0
 0.563 0.097 0
 0.565 0.097 0
 0.567 0.097 0
 0.569 0.097 0
 0.571 0.097 0
 0.573 0.097 0
 0.575 0.097 0
 0.577 0.097 0
 0.579 0.097 0
 0.581 0.097 0
 0.583 0.097 0
 0.585 0.097 0
 0.587 0.097 0
 0.589 0.097 0
 0.591 0.097 0
 0.593 0.097 0
 0.595 0.097 0
 0.597 0.097 0
 0.599 0.097 0
 0.501 0.099 0
 0.503 0.099 0
 0.505 0.099 0
 0.507 0.099 0
 0.509 0.099 0
 0.511 0.099 0
 0.513 0.099 0
 0.515 0.099 0
 0.517 0.099 0
 0.519 0.099 0
 0.521 0.099 0
 0.523 0.099 0
 0.525 0.099 0
 0.527 0.099 0
 0.529 0.099 0
 0.531 0.099 0
 0.533 0.099 0
 0.535 0.099 0
 0.537 0.099 0
 0.539 0.099 0
 0.541 0.099 0
 0.543 0.099 0
 0.545 0.099 0
 0.547 0.099 0
 0.549 0.099 0
 0.551 0.099 0
 0.553 0.099 0
 0.555 0.099 0
 0.557 0.099 0
 0.559 0.099 0
 0.561 0.099 0
 0.563 0.099 0
 0.565 0.099 0
 0.567 0.099 0
 0.569 0.099 0
 0.571 0.099 0
 0.573 0.099 0
 0.575 0.099 0
 0.577 0.099 0
 0.579 0.099 0
 0.581 0.099 0
 0.583 0.099 0
 0.585 0.099 0
 0.587 0.099 0
 0.589 0.099 0
 0.591 0.099 0
 0.593 0.099 0
 0.595 0.099 0
 0.597 0.099 0
 0.599 0.099 0
